<?xml version="1.0" encoding="utf-8"?>
<!-- Generator: Adobe Illustrator 24.0.0, SVG Export Plug-In . SVG Version: 6.00 Build 0)  -->
<svg version="1.1" id="Capa_1" xmlns="http://www.w3.org/2000/svg" xmlns:xlink="http://www.w3.org/1999/xlink" x="0px" y="0px"
	 viewBox="0 0 535.2 143.5" style="enable-background:new 0 0 535.2 143.5;" xml:space="preserve">
<style type="text/css">
	.st0{fill:#0973BA;}
	.st1{fill-rule:evenodd;clip-rule:evenodd;fill:#0973BA;}
	.st2{fill:none;stroke:#0973BA;stroke-width:3;stroke-miterlimit:10;}
	.st3{fill:#005F9A;}
	.st4{fill:url(#SVGID_1_);}
	.st5{fill:url(#SVGID_2_);}
</style>
<title>Logo</title>
<g>
	<g id="Logos">
		<path class="st0" d="M87.8,90.1v-9.6h175.4v9.6H87.8z M238.8,86.8c-0.2,0-0.4,0.2-0.4,0.5s0.3,0.6,0.7,0.6c0.3,0,0.6-0.1,0.9-0.3
			c0.3-0.2,0.4-0.5,0.4-0.8s-0.1-0.6-0.3-0.8l-0.1-0.1c-0.1-0.1-0.2-0.3-0.2-0.4s0.1-0.1,0.1-0.1l0,0c0.1,0,0.2,0,0.4,0.3
			c0.1,0.1,0.1,0.1,0.2,0.1c0.2,0,0.4-0.2,0.4-0.4c0-0.4-0.3-0.6-0.7-0.6c-0.3,0-0.5,0.1-0.7,0.3c-0.3,0.2-0.4,0.5-0.4,0.9
			c0,0.3,0.1,0.5,0.3,0.8c0.2,0.2,0.3,0.4,0.4,0.6c0,0.1-0.1,0.2-0.2,0.2c-0.1,0-0.3-0.1-0.5-0.3C239,86.8,238.9,86.8,238.8,86.8
			L238.8,86.8z M235.4,84.5c-0.4,0-0.8,0.2-1.1,0.4c-0.6,0.5-1,1.2-1.1,2c0,0.4,0.3,0.8,0.7,0.9h0.1c0.6,0,1.1-0.3,1.5-0.8l0.1-0.1
			l-0.1-0.2c0-0.1-0.1-0.1-0.2-0.1c-0.4,0.3-0.6,0.4-0.9,0.4c0,0-0.2,0-0.2-0.3c0-0.1,0-0.3,0.1-0.4c0.7-0.2,1.8-0.5,1.8-1.3
			C236.1,84.8,235.8,84.5,235.4,84.5L235.4,84.5z M228.9,85.3c-0.1,0.5-0.3,0.9-0.4,1.4s-0.2,0.6-0.3,0.8c0,0.1,0,0.2,0,0.3
			c0.1,0.1,0.3,0.2,0.4,0.2c0.2,0,0.3-0.1,0.4-0.2c0.2-0.6,0.5-1.2,0.9-1.8c0.1-0.2,0.2-0.4,0.4-0.5v0.1c0,0.1,0.1,0.3,0.3,0.3
			s0.5-0.4,0.5-0.7c0-0.3-0.1-0.5-0.4-0.5l0,0c-0.3,0-0.5,0.2-0.7,0.5c-0.1,0.1-0.1,0.2-0.2,0.3c0.1-0.2,0.1-0.4,0-0.6
			c-0.1-0.1-0.2-0.2-0.3-0.2c-0.6,0-1,0.6-1.1,0.8v0.1l0.1,0.2c0,0.1,0.1,0.1,0.2,0.1C228.5,85.5,228.7,85.4,228.9,85.3L228.9,85.3z
			 M224.1,84.5c-0.4,0-0.9,0.2-1.2,0.5c-0.5,0.4-0.8,1.1-0.8,1.7c0,0.3,0.1,0.6,0.3,0.8c0.2,0.2,0.5,0.3,0.7,0.3
			c0.5,0,0.9-0.2,1.2-0.5c0.4-0.4,0.7-1,0.7-1.7c0-0.3-0.1-0.6-0.3-0.8C224.7,84.6,224.4,84.5,224.1,84.5L224.1,84.5z M217.8,87
			c-0.1,0.1-0.1,0.3-0.1,0.5s0.2,0.4,0.3,0.4l0,0c0.6-0.1,1.1-0.5,1.5-1c0-0.2-0.1-0.3-0.2-0.3c-0.2,0.2-0.5,0.4-0.7,0.6
			c0.1-0.1,0.1-0.2,0.2-0.3s0.8-2.4,1.1-3.1c0.1-0.3,0.2-0.5,0.3-0.8l0.2-0.5l-0.1-0.1c-0.4,0-0.8,0.1-1.2,0.2H219l-0.1,0.1
			c0,0.1,0,0.1,0,0.2L219,83c0,0,0.1,0-0.1,0.4l-0.4,1.3c-0.1-0.1-0.2-0.1-0.3-0.1c-0.5,0-1,0.3-1.4,0.7c-0.6,0.5-0.9,1.2-1,1.9
			c0,0.3,0.2,0.7,0.5,0.7h0.1C216.9,87.8,217.4,87.5,217.8,87z M211.3,87.1c0,0.1-0.1,0.2-0.1,0.3c0,0.2,0.1,0.3,0.3,0.4l0,0
			c0.6-0.1,1.1-0.4,1.4-0.8c0-0.2-0.1-0.3-0.2-0.3c-0.2,0.2-0.5,0.4-0.7,0.5c0.3-0.7,0.8-1.9,1-2.4c-0.1-0.2-0.3-0.4-0.5-0.3
			c-0.1,0-0.1,0-0.2,0l-0.2,0.3l-0.1-0.1c-0.1,0-0.2-0.1-0.2-0.1c-0.2,0-0.4,0.1-0.6,0.2c-0.4,0.2-0.7,0.4-0.9,0.7
			c-0.5,0.5-0.8,1.1-0.9,1.7c0,0.3,0.2,0.5,0.5,0.5l0,0c0.5-0.1,1-0.4,1.4-0.8V87.1z M206.4,84.5c-0.5,0-0.9,0.2-1.2,0.6
			c-0.5,0.5-0.8,1.1-0.9,1.8c0,0.6,0.3,0.9,0.8,0.9c0.6,0,1.1-0.3,1.4-0.8l0.1-0.1l-0.1-0.2c0-0.1-0.1-0.1-0.2-0.1
			c-0.4,0.3-0.6,0.4-0.8,0.4s-0.2,0-0.2-0.3c0-0.5,0.2-0.9,0.4-1.3c0.2-0.3,0.4-0.4,0.4-0.4s0.1,0,0.1,0.2s0.1,0.4,0.3,0.4
			c0.3,0,0.5-0.2,0.5-0.5c0-0.2,0-0.3-0.1-0.4C206.9,84.6,206.7,84.5,206.4,84.5L206.4,84.5z M199.8,87.3c-0.1,0.1-0.1,0.2,0,0.3
			c0.1,0.1,0.2,0.1,0.3,0.1c0.6-0.1,1.2-0.5,1.5-1c0-0.2-0.1-0.3-0.2-0.3c-0.2,0.2-0.4,0.4-0.7,0.5c0.2-0.5,0.4-0.9,0.6-1.4l0.3-0.8
			c-0.1-0.2-0.3-0.3-0.5-0.3c-0.1,0-0.2,0-0.3,0c-0.4,0.8-0.8,1.5-1.4,2.1c-0.3,0.3-0.4,0.3-0.4,0.3l0.8-1.9c0-0.1,0.1-0.2,0.1-0.2
			c0-0.2-0.2-0.4-0.4-0.4c-0.6,0.1-1.1,0.4-1.5,0.9c0,0.2,0.1,0.3,0.2,0.3c0.2-0.2,0.4-0.4,0.7-0.5l-0.7,1.8
			c-0.1,0.1-0.1,0.3-0.1,0.4c0,0.3,0.2,0.5,0.5,0.5c0.4,0,1-0.5,1.4-1L199.8,87.3z M193.5,87c-0.1,0.1-0.1,0.3-0.1,0.5
			s0.2,0.4,0.4,0.4l0,0c0.6-0.1,1.1-0.5,1.5-1c0-0.2-0.1-0.3-0.2-0.3c-0.2,0.2-0.5,0.4-0.7,0.6c0.1,0,0.1-0.1,0.1-0.2v-0.2
			c0.1-0.3,0.8-2.3,1.1-3.1c0.2-0.4,0.3-0.7,0.4-1v-0.1c0-0.1-0.1-0.1-0.1-0.2c-0.4,0-0.8,0.1-1.2,0.2h-0.1l-0.1,0.1
			c0,0.1,0,0.1,0,0.2l0.2,0.2c0,0,0.1,0-0.1,0.4l-0.4,1.3c-0.1-0.1-0.2-0.1-0.3-0.1c-0.5,0-1,0.3-1.4,0.7c-0.6,0.5-0.9,1.2-1,1.9
			c0,0.4,0.2,0.7,0.6,0.7C192.6,87.8,193.1,87.5,193.5,87z M188.3,84.5c-0.4,0-0.8,0.2-1.1,0.4c-0.6,0.5-1,1.2-1.1,2
			c0,0.4,0.3,0.8,0.7,0.9h0.1c0.6,0,1.1-0.3,1.5-0.8l0.1-0.1l-0.1-0.2c0,0-0.1-0.1-0.2-0.1c-0.4,0.3-0.6,0.4-0.9,0.4
			c-0.1,0-0.2,0-0.2-0.3c0-0.1,0-0.3,0.1-0.4c0.7-0.1,1.8-0.5,1.8-1.3C189,84.8,188.6,84.5,188.3,84.5L188.3,84.5z M178.3,84.5
			c-0.4,0-0.8,0.2-1.1,0.4c-0.6,0.5-1,1.2-1.1,2c0,0.4,0.3,0.8,0.7,0.9h0.1c0.6,0,1.1-0.3,1.5-0.8l0.1-0.1l-0.1-0.2
			c0-0.1-0.1-0.1-0.2-0.1c-0.4,0.3-0.6,0.4-0.9,0.4c-0.1,0-0.2,0-0.2-0.3c0-0.1,0-0.3,0.1-0.4c0.7-0.2,1.8-0.5,1.8-1.3
			C179,84.8,178.7,84.5,178.3,84.5L178.3,84.5z M171.7,87c-0.1,0.2-0.1,0.3-0.1,0.5s0.2,0.4,0.3,0.4l0,0c0.6-0.1,1.1-0.5,1.5-1
			c0-0.2-0.1-0.3-0.2-0.3c-0.2,0.2-0.5,0.4-0.7,0.6c0.1,0,0.1-0.1,0.1-0.2v-0.2c0.1-0.3,0.8-2.4,1.1-3.1c0.1-0.4,0.2-0.6,0.3-0.9
			l0.1-0.3l-0.2-0.1c-0.4,0-0.8,0.1-1.2,0.2c-0.1,0.1-0.1,0.2-0.1,0.3l0,0L173,83c0,0,0.1,0-0.1,0.4l-0.4,1.3
			c-0.1-0.1-0.2-0.1-0.3-0.1c-0.5,0-1,0.3-1.4,0.7c-0.6,0.5-0.9,1.2-1,1.9c0,0.4,0.2,0.7,0.6,0.7C170.9,87.8,171.4,87.5,171.7,87z
			 M160.7,87.1c0,0.1-0.1,0.2-0.1,0.3c0,0.2,0.1,0.3,0.3,0.3l0,0c0.6-0.1,1.1-0.4,1.4-0.8c0-0.2-0.1-0.3-0.2-0.3
			c-0.2,0.2-0.5,0.4-0.7,0.5c0.3-0.7,0.8-1.9,1-2.4c-0.1-0.2-0.3-0.4-0.5-0.3c-0.1,0-0.1,0-0.2,0l-0.2,0.3l-0.1-0.1
			c-0.1,0-0.1-0.1-0.2-0.1c-0.2,0-0.4,0.1-0.6,0.2c-0.4,0.2-0.7,0.4-0.9,0.7c-0.5,0.5-0.8,1.1-0.9,1.7c0,0.3,0.2,0.5,0.5,0.5l0,0
			c0.5-0.1,1-0.4,1.3-0.8L160.7,87.1z M154.6,85.3c-0.2,0.6-0.4,1.2-0.6,1.7l-0.2,0.4c0,0.1,0,0.2,0,0.3c0.1,0.1,0.3,0.2,0.4,0.2
			c0.2,0,0.3-0.1,0.4-0.2c0.2-0.6,0.5-1.2,0.9-1.8c0.2-0.4,0.4-0.5,0.4-0.5s0,0,0,0.1s0.1,0.3,0.3,0.3s0.5-0.4,0.5-0.7
			c0-0.3-0.1-0.5-0.4-0.5l0,0c-0.3,0-0.5,0.3-0.7,0.5c-0.1,0.1-0.1,0.2-0.2,0.3c0.1-0.2,0.1-0.4,0-0.6c-0.1-0.1-0.2-0.2-0.3-0.2
			c-0.5,0.1-0.9,0.4-1.1,0.8v0.1l0.1,0.2c0,0.1,0.1,0.1,0.2,0.1C154.2,85.5,154.4,85.4,154.6,85.3L154.6,85.3z M149.8,84.5
			c-0.5,0-0.9,0.2-1.2,0.5c-0.5,0.5-0.7,1.1-0.8,1.7c0,0.3,0.1,0.6,0.3,0.8c0.2,0.2,0.5,0.3,0.7,0.3c0.5,0,0.9-0.2,1.2-0.5
			c0.4-0.4,0.7-1,0.7-1.7c0-0.3-0.1-0.6-0.3-0.8C150.4,84.6,150.1,84.5,149.8,84.5L149.8,84.5z M143.4,87c-0.1,0.1-0.1,0.3-0.1,0.5
			s0.2,0.4,0.3,0.4l0,0c0.6-0.1,1.1-0.5,1.5-1c0-0.2-0.1-0.3-0.2-0.3c-0.2,0.2-0.5,0.4-0.7,0.6c0.1,0,0.1-0.1,0.1-0.2l0.1-0.2
			c0.1-0.2,0.8-2.3,1-3.1c0.1-0.3,0.2-0.5,0.3-0.7l0.2-0.5l-0.2-0.1c-0.4,0-0.8,0.1-1.2,0.2c-0.1,0.1-0.1,0.2-0.1,0.3l0,0l0.2,0.2
			c0,0,0.1,0,0,0.4l-0.4,1.3c-0.1-0.1-0.2-0.1-0.3-0.1c-0.5,0-1,0.3-1.4,0.7c-0.6,0.5-0.9,1.2-1,1.9c0,0.4,0.2,0.7,0.6,0.7
			C142.6,87.7,143.1,87.5,143.4,87z M137,87.1c0,0.1-0.1,0.2-0.1,0.3c0,0.2,0.2,0.3,0.4,0.3l0,0c0.6-0.1,1.1-0.4,1.4-0.8
			c0-0.2-0.1-0.3-0.2-0.3c-0.2,0.2-0.5,0.4-0.7,0.5c0.3-0.7,0.8-1.9,1-2.4c-0.1-0.2-0.3-0.4-0.5-0.3c-0.1,0-0.1,0-0.2,0l-0.1,0.3
			l-0.1-0.1c-0.1,0-0.1-0.1-0.2-0.1c-0.2,0-0.4,0.1-0.6,0.2c-0.4,0.2-0.7,0.4-0.9,0.7c-0.5,0.5-0.8,1.1-0.9,1.7
			c0,0.3,0.2,0.5,0.5,0.5l0,0c0.5-0.1,1-0.4,1.3-0.8L137,87.1z M132.1,84.5c-0.5,0-0.9,0.2-1.2,0.6c-0.5,0.5-0.8,1.1-0.9,1.8
			c0,0.6,0.3,0.9,0.8,0.9c0.6-0.1,1.1-0.4,1.4-0.8l0.1-0.1l-0.1-0.2c0-0.1-0.1-0.1-0.2-0.1c-0.4,0.3-0.6,0.4-0.8,0.4s-0.2,0-0.2-0.3
			c0-0.5,0.2-0.9,0.4-1.3c0.2-0.3,0.4-0.4,0.4-0.4s0.1,0,0.1,0.2s0.1,0.4,0.3,0.4c0.3,0,0.5-0.2,0.5-0.5l0,0c0-0.2,0-0.3-0.2-0.4
			C132.5,84.6,132.3,84.5,132.1,84.5L132.1,84.5z M125.4,87.3c-0.1,0.2,0,0.4,0.2,0.4h0.1c0.6-0.1,1.2-0.5,1.5-1
			c0-0.2-0.1-0.3-0.2-0.3c-0.2,0.2-0.4,0.4-0.7,0.5c0.3-0.6,0.5-1.2,0.7-1.7l0.2-0.6c-0.1-0.2-0.3-0.3-0.5-0.3c-0.1,0-0.2,0-0.3,0
			c-0.4,0.8-0.8,1.5-1.4,2.1c-0.3,0.3-0.4,0.3-0.4,0.3l0.8-1.9c0-0.1,0-0.2,0-0.2c0-0.2-0.2-0.4-0.4-0.4c-0.6,0.1-1.1,0.4-1.5,0.9
			v0.1l0.1,0.2c0,0.1,0.1,0.1,0.2,0.1c0.2-0.2,0.4-0.4,0.7-0.5l-0.7,1.8c-0.1,0.1-0.1,0.3-0.1,0.4c0,0.3,0.2,0.5,0.5,0.5
			c0.4,0,1-0.5,1.4-1L125.4,87.3z M119.1,87c-0.1,0.1-0.1,0.3-0.1,0.5s0.2,0.4,0.3,0.4l0,0c0.6-0.1,1.2-0.5,1.5-1
			c0-0.2-0.1-0.3-0.2-0.3c-0.2,0.2-0.5,0.4-0.7,0.6c0.1-0.1,0.1-0.2,0.2-0.3s0.8-2.4,1.1-3.1c0.1-0.3,0.2-0.6,0.3-0.8l0.2-0.4
			l-0.2-0.1c-0.4,0-0.8,0.1-1.2,0.2c-0.1,0.1-0.1,0.2-0.1,0.3l0.2,0.1c0,0,0.1,0,0,0.4l-0.4,1.3c-0.1-0.1-0.2-0.1-0.3-0.1
			c-0.5,0-1,0.3-1.4,0.7c-0.6,0.5-0.9,1.2-1,1.9c0,0.4,0.2,0.7,0.6,0.7C118.3,87.7,118.8,87.4,119.1,87z M112,87.7h1.7
			c0.3-0.3,0.5-0.7,0.6-1.1c0-0.2-0.1-0.2-0.3-0.2l0,0h-0.1c-0.3,0.5-0.8,0.9-1.4,0.8c-0.5,0-0.6-0.1-0.6-0.1c0-0.2,0-0.4,0.1-0.7
			l0.3-0.9v-0.1h0.5c0.2,0,0.4,0,0.4,0.1s0,0.1,0,0.2V86h0.2c0.1,0,0.1,0,0.2-0.1c0.1-0.3,0.2-0.5,0.2-0.8l0.2-0.4l0.1-0.3
			c0-0.1-0.1-0.2-0.2-0.2l0,0c-0.1,0-0.1,0-0.2,0.1l-0.1,0.2c-0.1,0.3-0.2,0.3-0.7,0.3h-0.4c0,0,0,0,0-0.1l0.4-1.4
			c0.1-0.2,0.1-0.2,0.2-0.2h0.5c0.2,0,0.4,0,0.6,0.1c0.1,0.1,0.1,0.2,0.1,0.5V84h0.2c0.1,0,0.2,0,0.2-0.1c0.1-0.4,0.2-0.7,0.3-1.1
			l0.1-0.2H115c-0.1,0-0.5,0-0.9,0h-2h-0.4h-0.1c-0.1,0-0.1,0.1-0.1,0.2V83l0.1,0.1l0.2,0.1c0.1,0,0.2,0,0.2,0.1s0,0.3-0.1,0.6
			l-0.8,2.7c-0.2,0.7-0.3,0.7-0.5,0.7h-0.3c-0.1,0-0.2,0.1-0.2,0.3v0.1l0.1,0.1L112,87.7L112,87.7z"/>
		<path class="st1" d="M47.2,96.1c-15.4,0-27.9-12.5-27.9-27.9s12.5-27.9,27.9-27.9s27.9,12.5,27.9,27.9l0,0
			C75.1,83.6,62.6,96.1,47.2,96.1L47.2,96.1 M47.2,35.6c-18,0-32.6,14.6-32.6,32.6s14.6,32.6,32.6,32.6s32.6-14.6,32.6-32.6l0,0
			C79.8,50.2,65.2,35.6,47.2,35.6L47.2,35.6z"/>
		<path class="st1" d="M62.9,47.2C51.3,38.6,35,41,26.3,52.4l0,0L37.2,59l0,0c2.4-4.2,5.9-7.2,10.2-8.3c9.7-2.3,9.1,7.1,4.2,7.8
			c-2.6,0.3-5.2-0.7-7-2.7l-3.2,2.9c0,0,6,8.3,16.7,6.7C68.4,63.9,69.2,51.8,62.9,47.2L62.9,47.2z"/>
		<path class="st1" d="M46.8,94.5C32.3,94.2,20.7,82.1,21,67.6c0.1-4.9,1.6-9.7,4.2-13.8l0,0l11.1,6.7l0,0c-2.9,6.1-2.8,13.4-2,18.7
			s4.3,7.9,6.2,6.8s2.2-4.7,2-10.9c-0.2-4-0.7-7.9-1.5-11.8l0,0l5.7,3.4L46.8,94.5L46.8,94.5z"/>
		<path class="st1" d="M68.1,52.3c8.8,11.6,6.5,28.1-5.1,36.9c-1.3,1-2.8,1.9-4.3,2.6l0,0l-4.7-5l0,0v6.8l0,0
			c-1.8,0.5-3.7,0.8-5.6,0.9l0,0V68l4.6,2.7c2.1,13,5.8,14,5.8,14c6.4-7.8,3.2-18.9,3.3-19C64.9,65.1,70.8,59.8,68.1,52.3L68.1,52.3
			z"/>
		<path class="st1" d="M94.2,50.8V55c0.1,1-0.2,1.9-0.8,2.6c-1.5,1.1-3.5,1.1-5,0c-0.6-0.7-0.9-1.7-0.7-2.6v-4.2h1.9v3.9
			c0,1,0.1,2,1.3,2s1.3-1.1,1.3-2v-3.9H94.2z"/>
		<polygon class="st1" points="96.9,50.8 98.9,50.8 102.4,55.4 102.5,55.4 102.5,50.8 104.4,50.8 104.4,58.3 102.5,58.3 98.9,53.7 
			98.9,53.7 98.9,58.3 96.9,58.3 		"/>
		<rect x="107.2" y="50.8" class="st0" width="1.9" height="7.5"/>
		<polygon class="st1" points="115,55.4 116.8,50.8 118.9,50.8 115.7,58.3 114.2,58.3 111.1,50.8 113.2,50.8 		"/>
		<polygon class="st1" points="122.8,52.5 122.8,53.7 125,53.7 125,55.4 122.8,55.4 122.8,56.7 125.1,56.7 125.1,58.3 120.9,58.3 
			120.9,50.8 125.1,50.8 125.1,52.5 		"/>
		<path class="st1" d="M129.8,54.2h0.2c0.6,0,1.4-0.1,1.4-0.9s-0.7-0.9-1.4-0.9h-0.2V54.2z M134,58.3h-2.4l-1.8-2.9l0,0v2.9h-1.9
			v-7.5h2.9c1.5,0,2.6,0.7,2.6,2.3c0.1,1-0.6,1.9-1.6,2.1L134,58.3z"/>
		<path class="st1" d="M140.1,52.8c-0.4-0.3-0.8-0.5-1.3-0.5c-0.4,0-0.8,0.2-0.8,0.6s0.5,0.6,0.9,0.7l0.5,0.1c1,0.3,1.8,0.8,1.8,2
			c0.1,0.7-0.2,1.5-0.8,2s-1.4,0.7-2.1,0.7c-0.9,0-1.9-0.3-2.6-0.8l0.8-1.6c0.5,0.5,1.1,0.7,1.7,0.8c0.5,0,0.9-0.2,0.9-0.8
			s-0.8-0.7-1.2-0.8c-1.2-0.3-2-0.7-2-2.1c-0.1-1.3,1-2.5,2.3-2.5c0.1,0,0.2,0,0.2,0c0.8,0,1.6,0.2,2.3,0.6L140.1,52.8z"/>
		<rect x="143.6" y="50.8" class="st0" width="1.9" height="7.5"/>
		<path class="st1" d="M150.3,56.7h0.4c1.2,0,2.1-0.9,2.1-2.1s-0.9-2.1-2.1-2.1l0,0h-0.5L150.3,56.7z M148.3,50.8h2.8
			c2.1-0.1,3.8,1.5,3.9,3.5c0.1,2.1-1.5,3.8-3.5,3.9c-0.1,0-0.3,0-0.4,0h-2.8V50.8z"/>
		<path class="st1" d="M160.5,53.1L160.5,53.1l-0.8,2.4h1.6L160.5,53.1z M159.1,57l-0.5,1.3h-2.1l2.9-7.5h2.1l2.8,7.5h-2.1l-0.5-1.3
			H159.1z"/>
		<path class="st1" d="M168.4,56.7h0.4c1.2,0,2.1-0.9,2.1-2.1s-0.9-2.1-2.1-2.1h-0.5L168.4,56.7z M166.5,50.8h2.8
			c2.1-0.1,3.8,1.5,3.9,3.5c0.1,2.1-1.5,3.8-3.5,3.9c-0.1,0-0.3,0-0.4,0h-2.8V50.8z"/>
		<path class="st1" d="M182.2,54.3h0.3c0.7,0,1.4,0,1.4-0.9s-0.6-1-1.4-1h-0.3V54.3z M180.3,50.8h3c1.6,0,2.7,0.7,2.7,2.5
			s-0.9,2.5-2.6,2.5h-1.1v2.5h-2L180.3,50.8L180.3,50.8z"/>
		<polygon class="st1" points="190.3,52.5 190.3,53.7 192.5,53.7 192.5,55.4 190.3,55.4 190.3,56.7 192.6,56.7 192.6,58.3 
			188.3,58.3 188.3,50.8 192.6,50.8 192.6,52.5 		"/>
		<path class="st1" d="M197.2,56.7h0.4c1.2,0,2.1-0.9,2.1-2.1s-0.9-2.1-2.1-2.1h-0.5L197.2,56.7z M195.3,50.8h2.7
			c2.1-0.1,3.8,1.5,3.9,3.5c0.1,2.1-1.5,3.8-3.5,3.9c-0.1,0-0.3,0-0.4,0h-2.8L195.3,50.8z"/>
		<path class="st1" d="M207.5,53.1L207.5,53.1l-0.8,2.4h1.6L207.5,53.1z M206.1,57l-0.5,1.3h-2.1l2.9-7.5h2.1l2.8,7.5h-2.1l-0.5-1.3
			H206.1z"/>
		<path class="st1" d="M220.9,54.1c0.1,1.1-0.2,2.1-0.8,3c-0.7,1-1.9,1.5-3.1,1.4c-2.1,0.1-3.9-1.5-4-3.5c0-0.1,0-0.3,0-0.4
			c-0.1-2.1,1.5-3.9,3.7-4c0.1,0,0.2,0,0.3,0c1.4-0.1,2.8,0.8,3.4,2.1l-1.8,0.8c-0.2-0.7-0.8-1.2-1.5-1.2c-1.3,0.2-2.2,1.5-1.9,2.8
			c0.2,1,0.9,1.7,1.9,1.9c0.8,0.1,1.5-0.5,1.6-1.3l0,0H217v-1.5L220.9,54.1L220.9,54.1z"/>
		<path class="st1" d="M224.9,54.4c0,1.2,0.9,2.1,2.1,2.1s2.1-0.9,2.1-2.1l0,0c0-1.2-0.9-2.1-2.1-2.1S224.9,53.3,224.9,54.4
			 M231.1,54.4c0.2,2.3-1.6,4.3-3.9,4.4c-2.3,0.2-4.3-1.6-4.4-3.9c-0.2-2.3,1.6-4.3,3.9-4.4c0.1,0,0.2,0,0.3,0
			C229.2,50.5,231.1,52.2,231.1,54.4L231.1,54.4z"/>
		<path class="st1" d="M241,54.1c0.1,1.1-0.2,2.1-0.8,3c-0.7,1-1.9,1.5-3.1,1.5c-2.1,0.1-3.9-1.5-4-3.5c0-0.1,0-0.3,0-0.4
			c-0.1-2.1,1.5-3.9,3.7-4c0.1,0,0.2,0,0.3,0c1.4-0.1,2.8,0.8,3.4,2.1l-1.8,0.8c-0.2-0.7-0.9-1.2-1.6-1.2c-1.3,0.2-2.2,1.5-1.9,2.8
			c0.2,1,0.9,1.7,1.9,1.9c0.8,0.1,1.5-0.5,1.6-1.3l0,0h-1.6v-1.6L241,54.1L241,54.1z"/>
		<rect x="243.4" y="50.8" class="st0" width="1.9" height="7.5"/>
		<path class="st1" d="M253.4,53.3c-0.4-0.5-1-0.8-1.7-0.8c-1.1,0-2,0.9-2,2c0,0,0,0,0,0.1c0,1.1,0.8,2,1.9,2h0.1
			c0.6,0,1.2-0.3,1.7-0.8v2.3c-0.5,0.2-1.1,0.3-1.7,0.3c-1,0-2-0.4-2.8-1.1c-0.8-0.7-1.2-1.7-1.2-2.8c0-1,0.4-2,1.1-2.7
			c0.7-0.8,1.8-1.2,2.8-1.2c0.6,0,1.2,0.1,1.8,0.4L253.4,53.3z"/>
		<path class="st1" d="M259.3,53.1L259.3,53.1l-0.8,2.4h1.6L259.3,53.1z M258,57l-0.5,1.3h-2.1l2.9-7.5h2.1l2.8,7.5h-2.1l-0.5-1.3
			H258z"/>
		<polygon class="st1" points="87.8,65.6 89.7,65.6 93.3,70.2 93.3,70.2 93.3,65.6 95.2,65.6 95.2,73.1 93.3,73.1 89.7,68.5 
			89.7,68.5 89.7,73.1 87.8,73.1 		"/>
		<path class="st1" d="M101.2,67.9L101.2,67.9l-0.8,2.4h1.6L101.2,67.9z M99.9,71.8l-0.5,1.3h-2.1l2.9-7.5h2.1l2.8,7.5H103l-0.5-1.3
			H99.9z"/>
		<path class="st1" d="M112.5,68.1c-0.4-0.5-1-0.8-1.7-0.8c-1.1,0-2,0.9-2,2c0,0,0,0,0,0.1c0,1.1,0.8,2,1.9,2h0.1
			c0.6,0,1.3-0.3,1.7-0.8v2.3c-0.5,0.2-1.1,0.3-1.7,0.3c-1,0-2-0.4-2.8-1.1s-1.2-1.7-1.2-2.8c0-1,0.4-2,1.1-2.7
			c0.7-0.8,1.8-1.2,2.8-1.2c0.6,0,1.2,0.1,1.8,0.4L112.5,68.1z"/>
		<rect x="115.2" y="65.6" class="st0" width="1.9" height="7.5"/>
		<path class="st1" d="M121.6,69.2c0,1.2,0.9,2.1,2.1,2.1s2.1-0.9,2.1-2.1s-0.9-2.1-2.1-2.1S121.6,68.1,121.6,69.2 M127.8,69.2
			c0.2,2.3-1.6,4.3-3.8,4.4s-4.3-1.6-4.4-3.8c-0.2-2.3,1.6-4.3,3.8-4.4c0.1,0,0.2,0,0.3,0C125.9,65.3,127.7,67,127.8,69.2
			L127.8,69.2z"/>
		<polygon class="st1" points="130.2,65.6 132.1,65.6 135.7,70.2 135.7,70.2 135.7,65.6 137.6,65.6 137.6,73.1 135.7,73.1 
			132.1,68.5 132.1,68.5 132.1,73.1 130.2,73.1 		"/>
		<path class="st1" d="M143.7,67.9L143.7,67.9l-0.8,2.4h1.6L143.7,67.9z M142.3,71.8l-0.5,1.3h-2.1l2.9-7.5h2.1l2.8,7.5h-2.1
			l-0.4-1.3H142.3z"/>
		<polygon class="st1" points="151.6,71.4 153.9,71.4 153.9,73.1 149.6,73.1 149.6,65.6 151.6,65.6 		"/>
		<path class="st0" d="M119.6,84.9c-0.2,0-0.3,0.1-0.4,0.2c-0.3,0.3-0.6,0.7-0.9,1.1c-0.2,0.3-0.3,0.6-0.4,1c0,0.1,0,0.1,0.1,0.1
			c0.4-0.2,0.7-0.4,1-0.7c0.3-0.3,0.6-0.8,0.7-1.2C119.8,85.2,119.7,84.9,119.6,84.9z"/>
		<path class="st0" d="M137.4,85.1c-0.1,0-0.3,0.1-0.5,0.3c-0.4,0.5-0.7,1.1-0.8,1.7c0,0.1,0,0.2,0.1,0.2s0.4-0.3,0.7-0.6
			c0.4-0.4,0.6-0.9,0.8-1.4C137.7,85.2,137.6,85.1,137.4,85.1z"/>
		<path class="st0" d="M211.8,85.1c-0.1,0-0.3,0.1-0.5,0.3c-0.4,0.5-0.7,1.1-0.8,1.7c0,0.1,0,0.2,0.1,0.2s0.4-0.3,0.7-0.6
			c0.4-0.4,0.6-0.9,0.8-1.4C212,85.2,211.9,85.1,211.8,85.1z"/>
		<path class="st0" d="M143.9,84.9c-0.2,0-0.3,0.1-0.4,0.2c-0.3,0.3-0.6,0.7-0.9,1.1c-0.2,0.3-0.4,0.6-0.4,1c0,0.1,0,0.1,0.1,0.1
			c0.4-0.2,0.7-0.4,1-0.7c0.3-0.3,0.6-0.8,0.7-1.2C144.1,85.2,144,84.9,143.9,84.9z"/>
		<path class="st0" d="M193.9,84.9c-0.2,0-0.3,0.1-0.4,0.2c-0.3,0.3-0.6,0.7-0.9,1.1c-0.2,0.3-0.4,0.6-0.4,1c0,0.1,0,0.1,0.1,0.1
			c0.4-0.1,0.7-0.4,1-0.7c0.3-0.3,0.6-0.8,0.7-1.2C194.1,85.2,194.1,84.9,193.9,84.9z"/>
		<path class="st0" d="M188.1,84.9c-0.1,0-0.3,0.1-0.4,0.3c-0.2,0.3-0.4,0.6-0.5,0.9c0.3-0.1,0.6-0.3,0.8-0.5
			c0.1-0.1,0.2-0.3,0.3-0.5C188.2,85,188.2,84.9,188.1,84.9z"/>
		<path class="st0" d="M149.8,84.9c-0.1,0-0.3,0.1-0.5,0.3c-0.4,0.5-0.6,1.2-0.7,1.8c0,0.2,0.1,0.4,0.3,0.4s0.3-0.1,0.6-0.4
			c0.3-0.5,0.5-1.1,0.6-1.7C150.1,85.1,150,84.9,149.8,84.9z"/>
		<path class="st0" d="M172.2,84.9c-0.2,0-0.3,0.1-0.4,0.2c-0.3,0.3-0.6,0.7-0.9,1.1c-0.2,0.3-0.4,0.6-0.4,1c0,0.1,0,0.1,0.1,0.1
			c0.4-0.2,0.7-0.4,1-0.7c0.3-0.3,0.6-0.8,0.7-1.2C172.4,85.2,172.3,84.9,172.2,84.9z"/>
		<path class="st0" d="M235.3,84.9c-0.1,0-0.3,0.1-0.4,0.3c-0.2,0.3-0.4,0.6-0.5,0.9c0.3-0.1,0.6-0.3,0.8-0.5
			c0.1-0.1,0.2-0.3,0.3-0.5C235.4,85,235.4,84.9,235.3,84.9z"/>
		<path class="st0" d="M178.1,84.9c-0.1,0-0.3,0.1-0.4,0.3c-0.2,0.3-0.4,0.6-0.5,0.9c0.3-0.1,0.6-0.3,0.8-0.5
			c0.1-0.1,0.2-0.3,0.3-0.5C178.3,85,178.2,84.9,178.1,84.9z"/>
		<path class="st0" d="M218.2,84.9c-0.2,0-0.3,0.1-0.4,0.2c-0.3,0.3-0.6,0.7-0.9,1.1c-0.2,0.3-0.3,0.6-0.4,1c0,0.1,0,0.1,0.1,0.1
			l0,0c0.4-0.2,0.7-0.4,1-0.7c0.3-0.3,0.6-0.8,0.7-1.2C218.4,85.2,218.3,84.9,218.2,84.9z"/>
		<path class="st0" d="M161.2,85.1c-0.2,0-0.3,0.1-0.5,0.3c-0.4,0.5-0.7,1.1-0.8,1.7c0,0.1,0,0.2,0.1,0.2s0.4-0.3,0.8-0.6
			c0.4-0.4,0.6-0.9,0.8-1.4C161.5,85.2,161.3,85.1,161.2,85.1z"/>
		<path class="st0" d="M224.2,84.9c-0.1,0-0.3,0.1-0.5,0.3c-0.4,0.5-0.6,1.2-0.7,1.8c0,0.2,0.1,0.4,0.3,0.4s0.3-0.1,0.6-0.4
			c0.3-0.5,0.5-1.1,0.6-1.7C224.4,85.1,224.4,84.9,224.2,84.9z"/>
		<line class="st2" x1="306.3" y1="14.6" x2="306.3" y2="132.6"/>
	</g>
</g>
<g>
	<path class="st3" d="M347.1,55.2c7.8,0,13,4.4,13.6,11.5h-8.8c-0.8-2.7-3.1-4.1-6.2-4.1c-4.9,0-8.9,3.6-9.9,9.4
		c-1,5.7,1.7,9.4,6.6,9.4c3,0,5.8-1.4,7.6-4.2h8.8c-3.1,7.1-9.8,11.5-17.6,11.5c-9.7,0-15.3-6.9-13.5-16.7
		C329.4,62.1,337.4,55.2,347.1,55.2z"/>
	<path class="st3" d="M367,55.6h8l-5.8,32.8h-8L367,55.6z"/>
	<path class="st3" d="M460.9,72c-1.7,9.7-9.6,16.4-20.1,16.4h-12.3l5.8-32.8h12.3C457,55.6,462.6,62.2,460.9,72z M441.5,81.6
		c6,0,10.2-3.6,11.3-9.6c1.1-6-1.8-9.6-7.9-9.6H441l-3.4,19.2H441.5z"/>
	<path class="st3" d="M486.3,61.9h-12.1l-1.2,6.8h10.7l-1.1,6h-10.7l-1.3,7.3h12.1l-1.1,6.3h-20.1l5.8-32.8h20.1L486.3,61.9z"/>
	<path class="st3" d="M490.2,55.6h25.4l-1.1,6.3h-8.7l-4.7,26.5h-8l4.7-26.5h-8.7L490.2,55.6z"/>
	<linearGradient id="SVGID_1_" gradientUnits="userSpaceOnUse" x1="415.3318" y1="45.8031" x2="413.2306" y2="74.9187">
		<stop  offset="0" style="stop-color:#FFFFFF;stop-opacity:0"/>
		<stop  offset="4.885185e-02" style="stop-color:#E3EEF4;stop-opacity:4.885185e-02"/>
		<stop  offset="0.1525" style="stop-color:#AFCDDF;stop-opacity:0.1525"/>
		<stop  offset="0.2604" style="stop-color:#80AFCD;stop-opacity:0.2604"/>
		<stop  offset="0.3705" style="stop-color:#5997BD;stop-opacity:0.3705"/>
		<stop  offset="0.4832" style="stop-color:#3882B0;stop-opacity:0.4832"/>
		<stop  offset="0.5993" style="stop-color:#2073A7;stop-opacity:0.5993"/>
		<stop  offset="0.7202" style="stop-color:#0E689F;stop-opacity:0.7202"/>
		<stop  offset="0.8492" style="stop-color:#03619B;stop-opacity:0.8492"/>
		<stop  offset="1" style="stop-color:#005F9A"/>
	</linearGradient>
	<polygon class="st4" points="422.2,54.9 419,73 410.3,54.9 400.8,54.9 398,70.9 406.1,70.9 407,65.1 416.8,84.9 424.8,84.9 
		430.2,54.9 	"/>
	<linearGradient id="SVGID_2_" gradientUnits="userSpaceOnUse" x1="393.9083" y1="55.6977" x2="388.1666" y2="89.5432">
		<stop  offset="0" style="stop-color:#FFFFFF;stop-opacity:0"/>
		<stop  offset="3.743160e-02" style="stop-color:#DFEBF2;stop-opacity:3.743160e-02"/>
		<stop  offset="9.906292e-02" style="stop-color:#B1CEE0;stop-opacity:9.906292e-02"/>
		<stop  offset="0.1663" style="stop-color:#86B3CF;stop-opacity:0.1663"/>
		<stop  offset="0.2377" style="stop-color:#629DC1;stop-opacity:0.2377"/>
		<stop  offset="0.3145" style="stop-color:#4489B5;stop-opacity:0.3145"/>
		<stop  offset="0.3981" style="stop-color:#2B7AAB;stop-opacity:0.3981"/>
		<stop  offset="0.4915" style="stop-color:#186EA3;stop-opacity:0.4915"/>
		<stop  offset="0.6" style="stop-color:#0A659E;stop-opacity:0.6"/>
		<stop  offset="0.7375" style="stop-color:#02609B;stop-opacity:0.7375"/>
		<stop  offset="1" style="stop-color:#005F9A"/>
	</linearGradient>
	<polygon class="st5" points="381.7,87.9 385.1,69 394.1,87.9 403.1,87.9 405.7,72.9 397.7,72.9 397,77 387.3,56.9 379.3,56.9 
		373.7,87.9 	"/>
</g>
</svg>
